{
    "project_info": {
        "project_id": "cloff-loja-1c4ed",
        "project_number": "1098103043732",
        "name": "Cloff Loja"
    },
    "client": [
        {
            "client_info": {
                "client_id": "android:com.oobox.cloff.loja",
                "client_type": 1,
                "android_client_info": {
                    "package_name": "com.oobox.cloff.loja"
                }
            },
            "oauth_client": [],
            "api_key": [],
            "services": {
                "analytics_service": {
                    "status": 2,
                    "analytics_property": {
                        "tracking_id": "UA-66920315-3"
                    }
                },
                "cloud_messaging_service": {
                    "status": 1,
                    "apns_config": []
                },
                "appinvite_service": {
                    "status": 1,
                    "other_platform_oauth_client": []
                },
                "google_signin_service": {
                    "status": 1
                },
                "ads_service": {
                    "status": 1
                }
            }
        },
        {
            "client_info": {
                "client_id": "android:br.com.cloff.store",
                "client_type": 1,
                "android_client_info": {
                    "package_name": "br.com.cloff.store"
                }
            },
            "oauth_client": [],
            "api_key": [],
            "services": {
                "analytics_service": {
                    "status": 2,
                    "analytics_property": {
                        "tracking_id": "UA-66920315-4"
                    }
                },
                "cloud_messaging_service": {
                    "status": 1,
                    "apns_config": []
                },
                "appinvite_service": {
                    "status": 1,
                    "other_platform_oauth_client": []
                },
                "google_signin_service": {
                    "status": 1
                },
                "ads_service": {
                    "status": 1
                }
            }
        }
    ],
    "client_info": [],
    "ARTIFACT_VERSION": "1",
    "installed": {
        "client_id": "1050236565305-hf7cduuvffg0ldtsk7mh0pfcl6g4r05p.apps.googleusercontent.com",
        "auth_uri": "https://accounts.google.com/o/oauth2/auth",
        "token_uri": "https://accounts.google.com/o/oauth2/token",
        "auth_provider_x509_cert_url": "https://www.googleapis.com/oauth2/v1/certs",
        "redirect_uris": [
            "urn:ietf:wg:oauth:2.0:oob",
            "http://localhost"
        ]
    }
}